%YAML 1.1
%TAG !u! tag:unity3d.com,2011:
--- !u!1045 &1
EditorBuildSettings:
  m_ObjectHideFlags: 0
  serializedVersion: 2
  m_Scenes:
  - enabled: 0
    path: Assets/Scenes/SampleScene.unity
    guid: 2cda990e2423bbf4892e6590ba056729
  - enabled: 1
    path: Assets/Scenes/Start Menu.unity
    guid: 3bb1eee7981914ba78b17a0d8dba0966
  - enabled: 1
    path: Assets/Scenes/Game Scene.unity
    guid: dcb93617f64dd4a3eaf63500487d7a88
  - enabled: 1
    path: Assets/Scenes/End Scene.unity
    guid: 4b88e7e9f62334ee5becd0bb963485da
  m_configObjects: {}
