%YAML 1.1
%TAG !u! tag:unity3d.com,2011:
--- !u!114 &11400000
MonoBehaviour:
  m_ObjectHideFlags: 0
  m_CorrespondingSourceObject: {fileID: 0}
  m_PrefabInstance: {fileID: 0}
  m_PrefabAsset: {fileID: 0}
  m_GameObject: {fileID: 0}
  m_Enabled: 1
  m_EditorHideFlags: 0
  m_Script: {fileID: 11500000, guid: c29970f5c01704b49b7b5266f00b554a, type: 3}
  m_Name: A10. Narrow Escape
  m_EditorClassIdentifier: 
  storyText: 'You take your cue from the two men and get on your horse. Figuratively
    of course, no one rides horses since the combustamobile was invented.


    You zig. You zag. You weave through the huge machinery of the pumping station.
    Steam jets have started squirting out of pipes. Gears are grinding to a halt.
    You see the exit ahead.


    Something behind you gives a grinding screech. Metal eating into metal. You leap
    for the door and slide through on your stomach, just as all hell breaks lose behind
    you.


    1. Continue...'
  nextStates:
  - {fileID: 11400000, guid: a864535e2ce2e49289e8764dccc6ed74, type: 2}
