%YAML 1.1
%TAG !u! tag:unity3d.com,2011:
--- !u!114 &11400000
MonoBehaviour:
  m_ObjectHideFlags: 0
  m_CorrespondingSourceObject: {fileID: 0}
  m_PrefabInstance: {fileID: 0}
  m_PrefabAsset: {fileID: 0}
  m_GameObject: {fileID: 0}
  m_Enabled: 1
  m_EditorHideFlags: 0
  m_Script: {fileID: 11500000, guid: c29970f5c01704b49b7b5266f00b554a, type: 3}
  m_Name: A9. Pressure Build Up
  m_EditorClassIdentifier: 
  storyText: 'You open up the valve (anti-clockwise), step back, and congratulate
    yourself on averting certain tragedy. Phew, that was close.


    As you stand pondering your next move, you hear a popping noise, as if a huge
    build up of steam has cause the rivet of a boiler to be expunged like a squeezed
    whitehead on a teenager''s forehead.


    Then another. Then another. Oh..... maybe the men turned off more than on valve.
    You hear an almighty screeching as the huge gears and cogs start to jam. Then
    a deafening road.


    1. Continue...'
  nextStates:
  - {fileID: 11400000, guid: c01c9cb5d14314386a417717d4beb328, type: 2}
